,idx,ta,va,vl
0,0,0.75,0.7733333110809326,0.4838525354862213
1,1,0.7639999985694885,0.7762963175773621,0.4841335713863373
2,2,0.7480000257492065,0.7792592644691467,0.479724258184433
3,3,0.7699999809265137,0.7777777910232544,0.4827553927898407
4,4,0.7459999918937683,0.7837036848068237,0.49116837978363037
5,5,0.7720000147819519,0.7985185384750366,0.47658735513687134
6,6,0.7639999985694885,0.7807407379150391,0.48408636450767517
7,7,0.7620000243186951,0.7748148441314697,0.4793110191822052
8,8,0.7540000081062317,0.7911111116409302,0.47594818472862244
9,9,0.7760000228881836,0.7777777910232544,0.495004802942276
