,idx,ta,va,vl
0,0,0.7639999985694885,0.7881481647491455,0.4858187735080719
1,1,0.7739999890327454,0.7881481647491455,0.4793514907360077
2,2,0.7739999890327454,0.7837036848068237,0.47747567296028137
3,3,0.7580000162124634,0.7822222113609314,0.48958128690719604
4,4,0.7599999904632568,0.7762963175773621,0.4849666655063629
5,5,0.7620000243186951,0.7896296381950378,0.4944799840450287
6,6,0.7480000257492065,0.7718518376350403,0.4988029897212982
7,7,0.7620000243186951,0.7807407379150391,0.49341660737991333
8,8,0.7799999713897705,0.7837036848068237,0.478515088558197
9,9,0.7440000176429749,0.7822222113609314,0.4880450665950775
