,idx,ta,va,vl
0,0,0.8840000033378601,0.8666666746139526,0.3043719232082367
1,1,0.8700000047683716,0.8711110949516296,0.29788804054260254
2,2,0.8920000195503235,0.8711110949516296,0.28098243474960327
3,3,0.878000020980835,0.8859259486198425,0.2841988205909729
4,4,0.8899999856948853,0.8755555748939514,0.29288941621780396
5,5,0.871999979019165,0.8770370483398438,0.30152803659439087
6,6,0.8799999952316284,0.863703727722168,0.3031492829322815
7,7,0.8920000195503235,0.8711110949516296,0.2964470386505127
8,8,0.9039999842643738,0.8933333158493042,0.27590855956077576
9,9,0.8840000033378601,0.8755555748939514,0.2948756814002991
