"ID","TIME","LRATIO"
"8r",0,2
"8r",1,1.45252702647919
"8r",2,1.05273419849673
"8r",3,0.69776208888947
"8r",4,0.362233611517758
"8r",5,0.0385127475864251
"8r",6,-0.273257601577464
"8r",7,-0.566942441209899
"8r",8,-0.830408355555716
"8r",9,-1.04772534523859
"8r",10,-1.20698373166867
"8r",11,-1.30926100955758
"8r",12,-1.36784290903754
"8r",13,-1.39889300852839
"8r",14,-1.41467557219296
"8r",15,-1.42256141136393
"8r",16,-1.42649555862789
"8r",17,-1.4284701227287
"8r",18,-1.42946507805264
"8r",19,-1.42998677275939
"8r",20,-1.43025760065369
"8r",21,-1.43041836493621
"8r",22,-1.4305060481116
"8r",23,-1.43057004020933
"8r",24,-1.43061968905467
"8r",25,-1.43065562855199
"8r",26,-1.43069228691032
"8r",27,-1.43072982954491
"8r",28,-1.43076039837984
"8r",29,-1.43078608926438
"8r",30,-1.43081894497256
"8r",31,-1.43086027618501
"8r",32,-1.43089042469199
"8r",33,-1.43090859529092
"8r",34,-1.4309370390783
"8r",35,-1.43099069005222
"8r",36,-1.43102247739158
"8r",37,-1.43102623432833
"8r",38,-1.43105768524803
"8r",39,-1.43112214991112
"8r",40,-1.43114255313582
"8r",41,-1.4311367422664
"8r",42,-1.43119440134579
"8r",43,-1.43124597397987
"8r",44,-1.43124525330324
"8r",45,-1.43126953629155
"8r",46,-1.43133317055305
"8r",47,-1.43135303599562
"8r",48,-1.43135786198181
"8r",49,-1.43141662440363
"8r",50,-1.43145351460182
"8r",51,-1.43145820981628
"8r",52,-1.431499937925
"8r",53,-1.43154863510772
"8r",54,-1.43156228887859
"8r",55,-1.43158383423949
"8r",56,-1.43163864569973
"8r",57,-1.43166600583677
"8r",58,-1.43167447709173
"8r",59,-1.43172284235254
"8r",60,-1.43176591599388
"8r",61,-1.43177637987281
"8r",62,-1.43180346723692
"8r",63,-1.43185830049222
"8r",64,-1.43188200794803
"8r",65,-1.43189008934048
"8r",66,-1.43192848131135
"8r",67,-1.43196620926443
"8r",68,-1.43200217360663
"8r",69,-1.43203637389984
"8r",70,-1.43206880972736
"8r",71,-1.43209948069391
"8r",72,-1.43212838642566
"8r",73,-1.43215750828452
"8r",74,-1.4321872173184
"8r",75,-1.43221726733907
"8r",76,-1.43224765841713
"8r",77,-1.43227839062399
"8r",78,-1.43230946403187
"8r",79,-1.43234087871378
"8r",80,-1.43237235331402
"8r",81,-1.43240365887746
"8r",82,-1.43243491450943
"8r",83,-1.43246612019898
"8r",84,-1.4324972759352
"8r",85,-1.43252838170719
"8r",86,-1.43255943750406
"8r",87,-1.43259044331493
"8r",88,-1.43262139912895
"8r",89,-1.43265234620985
"8r",90,-1.43268334134936
"8r",91,-1.43271434328982
"8r",92,-1.43274535203255
"8r",93,-1.43277636757883
"8r",94,-1.43280738992996
"8r",95,-1.43283841908725
"8r",96,-1.432869455052
"8r",97,-1.4329004978255
"8r",98,-1.43293154740906
"8r",99,-1.43296260380397
"8r",100,-1.43299366701155
"8r",101,-1.43302473622896
"8r",102,-1.43305579473061
"8r",103,-1.43308685108994
"8r",104,-1.43311790530635
"8r",105,-1.4331489573792
"8r",106,-1.4331800073079
"8r",107,-1.43321105509181
