,idx,ta,va,vl
0,0,0.9779999852180481,0.9851852059364319,0.0573185570538044
1,1,0.984000027179718,0.9881481528282166,0.05402417108416557
2,2,0.9800000190734863,0.9748148322105408,0.08514302223920822
3,3,0.9760000109672546,0.9881481528282166,0.05479796975851059
4,4,0.984000027179718,0.9866666793823242,0.04515436291694641
5,5,0.9660000205039978,0.9748148322105408,0.10061317682266235
6,6,0.9819999933242798,0.9911110997200012,0.03535318002104759
7,7,0.9800000190734863,0.9896296262741089,0.058733854442834854
8,8,0.984000027179718,0.9748148322105408,0.07768547534942627
9,9,0.9819999933242798,0.9881481528282166,0.06534575670957565
