,idx,ta,va,vl
0,0,0.6552419066429138,0.6145833134651184,0.6709966063499451
1,1,0.6270161271095276,0.6190476417541504,0.6766211986541748
2,2,0.6129032373428345,0.6026785969734192,0.6858968138694763
3,3,0.5887096524238586,0.555059552192688,0.690152645111084
4,4,0.6451612710952759,0.6309523582458496,0.6626269221305847
5,5,0.6431451439857483,0.6116071343421936,0.6781743764877319
6,6,0.6391128897666931,0.625,0.6763288378715515
7,7,0.6411290168762207,0.6160714030265808,0.6668060421943665
8,8,0.6391128897666931,0.6116071343421936,0.6700910925865173
9,9,0.6411290168762207,0.6220238208770752,0.6655229330062866
