,idx,ta,va,vl
0,0,0.9779999852180481,0.9837037324905396,0.0676182359457016
1,1,0.9860000014305115,0.9866666793823242,0.03855546563863754
2,2,0.9800000190734863,0.9837037324905396,0.07398959994316101
3,3,0.972000002861023,0.9585185050964355,0.12003582715988159
4,4,0.9800000190734863,0.9851852059364319,0.057675883173942566
5,5,0.9760000109672546,0.9851852059364319,0.05097637698054314
6,6,0.9639999866485596,0.9881481528282166,0.07061386108398438
7,7,0.9760000109672546,0.9896296262741089,0.0369848757982254
8,8,0.984000027179718,0.9911110997200012,0.04283834248781204
9,9,0.9879999756813049,0.9881481528282166,0.0651402622461319
