,idx,ta,va,vl
0,0,0.8560000061988831,0.8755555748939514,0.27849599719047546
1,1,0.8560000061988831,0.8770370483398438,0.2873346507549286
2,2,0.8640000224113464,0.8903703689575195,0.2818564176559448
3,3,0.8640000224113464,0.8799999952316284,0.2814660370349884
4,4,0.8579999804496765,0.8740741014480591,0.3049413561820984
5,5,0.8560000061988831,0.8903703689575195,0.26730021834373474
6,6,0.8640000224113464,0.8859259486198425,0.2947482168674469
7,7,0.843999981880188,0.8711110949516296,0.3095548152923584
8,8,0.8579999804496765,0.8770370483398438,0.2873207926750183
9,9,0.8500000238418579,0.8696296215057373,0.3246033787727356
