,idx,ta,va,vl
0,0,0.7670000004768371,0.7703703715183117,0.49726199520958797
1,1,0.777,0.785185186068217,0.46983971171908906
2,2,0.76,0.7829629638459947,0.497129743275819
3,3,0.759,0.7688888896836175,0.49525168039180617
4,4,0.784,0.7688888898602239,0.4877680256631639
5,5,0.764,0.7755555563502842,0.48495106635270296
6,6,0.7559999990463256,0.7792592584645307,0.5096321620764556
7,7,0.766,0.7740740749571059,0.49025335391362507
8,8,0.7620000004768371,0.7659259268089577,0.4876141576413755
9,9,0.774,0.7785185195781567,0.4834716084268358
