,idx,ta,va,vl
0,0,0.7310000009536743,0.7711111119058397,0.5050476694107056
1,1,0.7700000004768371,0.788148149119483,0.5008519647739552
2,2,0.7570000009536744,0.7725925936522308,0.4956535705813655
3,3,0.7659999990463257,0.7785185193132471,0.4804743051528931
4,4,0.7710000009536743,0.7844444455923858,0.4607180749045478
5,5,0.7540000004768371,0.7800000008830318,0.47960387318222614
6,6,0.7379999995231629,0.7785185194898535,0.4774653931900307
7,7,0.7749999995231629,0.7792592600539878,0.4800948133292022
8,8,0.7590000004768371,0.7785185194898535,0.4846495485305786
9,9,0.76,0.7800000007947286,0.46754844709678933
