,idx,ta,va,vl
0,0,0.7900000004768372,0.7770370380966751,0.5134369353894834
1,1,0.7970000009536743,0.775555556261981,0.5064546628351565
2,2,0.7660000004768371,0.7674074081138328,0.5157490372657776
3,3,0.7960000009536743,0.7851851859799138,0.4880092023478614
4,4,0.7870000009536743,0.7622222232818604,0.5072626415005437
5,5,0.7770000009536743,0.7688888898602239,0.5095725487779688
6,6,0.7850000009536743,0.7318518529997932,0.5305863378666066
7,7,0.7910000009536743,0.7614814823645133,0.5278949310602965
8,8,0.7830000004768372,0.7740740752220154,0.501540240181817
9,9,0.7900000009536743,0.7651851859799138,0.5065133697456784
