,idx,ta,va,vl
0,0,0.9819999933242798,0.9881481528282166,0.04653386026620865
1,1,0.9879999756813049,0.9866666793823242,0.045746780931949615
2,2,0.9860000014305115,0.9866666793823242,0.046049244701862335
3,3,0.9879999756813049,0.9881481528282166,0.04456590116024017
4,4,0.9879999756813049,0.9866666793823242,0.058128803968429565
5,5,0.9860000014305115,0.9851852059364319,0.05673319473862648
6,6,0.9700000286102295,0.9792592525482178,0.08671274036169052
7,7,0.9760000109672546,0.9851852059364319,0.06616372615098953
8,8,0.9860000014305115,0.9866666793823242,0.04880508407950401
9,9,0.9819999933242798,0.9866666793823242,0.06515556573867798
