,idx,ta,va,vl
0,0,0.9879999756813049,0.9866666793823242,0.045783743262290955
1,1,0.9819999933242798,0.9896296262741089,0.038816776126623154
2,2,0.9779999852180481,0.9851852059364319,0.0542573481798172
3,3,0.9860000014305115,0.9896296262741089,0.03746465966105461
4,4,0.9739999771118164,0.9911110997200012,0.045433465391397476
5,5,0.9800000190734863,0.9881481528282166,0.050246186554431915
6,6,0.9760000109672546,0.9866666793823242,0.06193685531616211
7,7,0.9419999718666077,0.9348148107528687,0.18680626153945923
8,8,0.9900000095367432,0.9851852059364319,0.06611894816160202
9,9,0.9819999933242798,0.9881481528282166,0.044262345880270004
