,idx,ta,va,vl
0,0,0.8090000009536743,0.8437037041452196,0.37246143641295254
1,1,0.792,0.8311111113760207,0.40029055343733894
2,2,0.8029999990463257,0.8474074079372265,0.3639548709215941
3,3,0.6609999995231628,0.6555555566151937,0.6715363068933841
4,4,0.8080000009536743,0.84370370388031,0.36941160608220985
5,5,0.8089999990463257,0.8466666669315762,0.37348574505911936
6,6,0.7909999990463257,0.8311111114643238,0.3922854816472089
7,7,0.8140000009536743,0.8392592595241688,0.3760894318421682
8,8,0.655,0.7029629636693884,0.5715759480441058
9,9,0.7849999990463257,0.836296296649509,0.3907241663226375
