,idx,ta,va,vl
0,0,0.765999972820282,0.7985185384750366,0.4828583002090454
1,1,0.7559999823570251,0.7911111116409302,0.47089648246765137
2,2,0.75,0.7851851582527161,0.47809460759162903
3,3,0.7580000162124634,0.7866666913032532,0.4874274432659149
4,4,0.765999972820282,0.7748148441314697,0.4962935745716095
5,5,0.7559999823570251,0.7866666913032532,0.4854528307914734
6,6,0.75,0.7896296381950378,0.47823989391326904
7,7,0.765999972820282,0.7762963175773621,0.487605482339859
8,8,0.7580000162124634,0.7733333110809326,0.4970127046108246
9,9,0.7580000162124634,0.7911111116409302,0.48477277159690857
