,idx,ta,va
0,0,0.6501340270042419,0.6866141557693481
1,1,0.6541554927825928,0.6992126107215881
2,2,0.6353887319564819,0.6740157604217529
3,3,0.6461126208305359,0.6803149580955505
4,4,0.6394101977348328,0.6850393414497375
5,5,0.6568364500999451,0.6834645867347717
6,6,0.6447721123695374,0.6960629820823669
7,7,0.6501340270042419,0.6771653294563293
8,8,0.6313672661781311,0.6866141557693481
9,9,0.6353887319564819,0.6850393414497375
10,10,0.6367292404174805,0.6866141557693481
11,11,0.6327077746391296,0.6818897724151611
12,12,0.6514745354652405,0.6960629820823669
13,13,0.6380696892738342,0.6929134130477905
14,14,0.6380696892738342,0.6913385987281799
15,15,0.6501340270042419,0.6755905747413635
16,16,0.6447721123695374,0.6944881677627563
17,17,0.6501340270042419,0.6960629820823669
18,18,0.6581769585609436,0.6850393414497375
19,19,0.6487935781478882,0.6881889700889587
