,idx,ta,va,vl
0,0,0.9259999990463257,0.902222216129303,0.24056150019168854
1,1,0.984000027179718,0.9822221994400024,0.05969074368476868
2,2,0.9900000095367432,0.9866666793823242,0.059127140790224075
3,3,0.984000027179718,0.9851852059364319,0.07241735607385635
4,4,0.9779999852180481,0.9792592525482178,0.054668448865413666
5,5,0.9739999771118164,0.9866666793823242,0.07009712606668472
6,6,0.9819999933242798,0.9866666793823242,0.07511898130178452
7,7,0.9900000095367432,0.9881481528282166,0.04864953085780144
8,8,0.9860000014305115,0.9822221994400024,0.06650729477405548
9,9,0.9800000190734863,0.9807407259941101,0.07356932014226913
