,idx,ta,va,vl
0,0,0.7630000004768371,0.7762962972676313,0.4836504391387657
1,1,0.7570000009536744,0.774074075045409,0.4830741388709457
2,2,0.7490000004768371,0.7592592600539878,0.4986115859172962
3,3,0.7410000009536744,0.767407408202136,0.5141390976199397
4,4,0.7660000009536743,0.7703703712534021,0.4836407802723072
5,5,0.7470000004768371,0.7740740749571059,0.48778748521098386
6,6,0.7680000009536743,0.7770370377434624,0.47644927236768936
7,7,0.7529999990463256,0.7770370363306116,0.4961439076176396
8,8,0.758,0.7733333342163651,0.48807838890287614
9,9,0.7660000004768371,0.7733333342163651,0.48629297697985613
